[
  {
    "id": "9814e813-4821-4411-afc1-7ddadcf6956d",
    "data": [
      {
        "text": "What is my BI Point?",
        "userDefined": false
      }
    ],
    "isTemplate": false,
    "count": 0,
    "updated": 1542271384
  }
]